{
  "parent": "block/inner_stairs",
  "textures": {
    "bottom": "oretrees:blocks/plank_lapis_lazuli",
    "top": "oretrees:blocks/plank_lapis_lazuli",
    "side": "oretrees:blocks/plank_lapis_lazuli"
  }
}