{
  "forge_marker": 1,
  "variants": {
    "axis=y":   { "model": "oretrees:block/wood_coal" },
    "axis=z":   { "model": "oretrees:block/wood_coal", "x": 90 },
    "axis=x":   { "model": "oretrees:block/wood_coal", "x": 90, "y": 90 }
  }
}